<?xml version="1.0" encoding="UTF-8" standalone="no"?>
<!-- Created with Inkscape (http://www.inkscape.org/) -->

<svg
   version="1.1"
   id="svg979"
   width="12"
   height="12"
   viewBox="0 0 12 12"
   sodipodi:docname="buttonx.svg"
   inkscape:version="1.1.2 (0a00cf5339, 2022-02-04)"
   xmlns:inkscape="http://www.inkscape.org/namespaces/inkscape"
   xmlns:sodipodi="http://sodipodi.sourceforge.net/DTD/sodipodi-0.dtd"
   xmlns:xlink="http://www.w3.org/1999/xlink"
   xmlns="http://www.w3.org/2000/svg"
   xmlns:svg="http://www.w3.org/2000/svg">
  <defs
     id="defs983" />
  <sodipodi:namedview
     id="namedview981"
     pagecolor="#ffffff"
     bordercolor="#666666"
     borderopacity="1.0"
     inkscape:pageshadow="2"
     inkscape:pageopacity="0.0"
     inkscape:pagecheckerboard="0"
     showgrid="false"
     inkscape:zoom="70.166667"
     inkscape:cx="6"
     inkscape:cy="5.8004751"
     inkscape:window-width="1910"
     inkscape:window-height="1050"
     inkscape:window-x="0"
     inkscape:window-y="0"
     inkscape:window-maximized="0"
     inkscape:current-layer="g985" />
  <g
     inkscape:groupmode="layer"
     inkscape:label="Image"
     id="g985">
    <image
       width="12"
       height="12"
       preserveAspectRatio="none"
       xlink:href="data:image/png;base64,iVBORw0KGgoAAAANSUhEUgAAAAwAAAAMCAYAAABWdVznAAAABHNCSVQICAgIfAhkiAAAABhJREFU
KJFj1OQV+89AAmAiRfGohpGkAQARzAFjbDtWhQAAAABJRU5ErkJggg==
"
       id="image987"
       style="fill:#18a6d2;fill-opacity:1.19677e-07;stroke:#18a6d2;stroke-opacity:1" />
    <path
       style="fill:#18a6d2;fill-opacity:1.19677e-07;stroke:#18a6d2;stroke-width:0.656;stroke-linecap:butt;stroke-linejoin:miter;stroke-miterlimit:4;stroke-dasharray:none;stroke-opacity:0"
       d="M 1.9319393,1.0479635 10.792813,9.5893665 9.7762341,10.499375 0.94807836,1.8769798 Z"
       id="path1474" />
    <path
       style="opacity:1;fill:#18a6d2;fill-opacity:1.19677e-07;stroke:#18a6d2;stroke-width:1px;stroke-linecap:butt;stroke-linejoin:miter;stroke-opacity:0"
       d="M 1.8998562,1.3321301 11.040801,9.7996977 10.343028,10.541286 1.1872002,2.0378334 Z"
       id="path1674" />
    <rect
       style="fill:#18a6d2;fill-opacity:1;fill-rule:evenodd"
       id="rect20541"
       width="1.799479"
       height="10.339812"
       x="5.2431536"
       y="-11.179829"
       transform="rotate(90)" />
    <rect
       style="fill:#18a6d2;fill-opacity:1;fill-rule:evenodd"
       id="rect20541-3"
       width="1.8170589"
       height="10.258299"
       x="-6.8269014"
       y="-11.280226"
       transform="scale(-1)" />
  </g>
</svg>
