/* XPM */
static char * gridi_xpm[] = {
"12 12 1 1",
" 	c #4682B4",
"            ",
"            ",
"            ",
"            ",
"            ",
"            ",
"            ",
"            ",
"            ",
"            ",
"            ",
"            "};
