<?xml version="1.0" encoding="UTF-8" standalone="no"?>
<!-- Created with Inkscape (http://www.inkscape.org/) -->

<svg
   version="1.1"
   id="svg979"
   width="12"
   height="12"
   viewBox="0 0 12 12"
   sodipodi:docname="iconifyx.svg"
   inkscape:version="1.1.2 (0a00cf5339, 2022-02-04)"
   xmlns:inkscape="http://www.inkscape.org/namespaces/inkscape"
   xmlns:sodipodi="http://sodipodi.sourceforge.net/DTD/sodipodi-0.dtd"
   xmlns:xlink="http://www.w3.org/1999/xlink"
   xmlns="http://www.w3.org/2000/svg"
   xmlns:svg="http://www.w3.org/2000/svg">
  <defs
     id="defs983" />
  <sodipodi:namedview
     id="namedview981"
     pagecolor="#ffffff"
     bordercolor="#666666"
     borderopacity="1.0"
     inkscape:pageshadow="2"
     inkscape:pageopacity="0.0"
     inkscape:pagecheckerboard="0"
     showgrid="false"
     inkscape:zoom="70.166667"
     inkscape:cx="6"
     inkscape:cy="5.800475"
     inkscape:window-width="1910"
     inkscape:window-height="1050"
     inkscape:window-x="-1"
     inkscape:window-y="0"
     inkscape:window-maximized="1"
     inkscape:current-layer="g985" />
  <g
     inkscape:groupmode="layer"
     inkscape:label="Image"
     id="g985">
    <image
       width="12"
       height="12"
       preserveAspectRatio="none"
       xlink:href="data:image/png;base64,iVBORw0KGgoAAAANSUhEUgAAAAwAAAAMCAYAAABWdVznAAAABHNCSVQICAgIfAhkiAAAABhJREFU KJFj1OQV+89AAmAiRfGohpGkAQARzAFjbDtWhQAAAABJRU5ErkJggg== "
       id="image987"
       style="fill:#18a6d2;fill-opacity:1.19677e-07;stroke:#18a6d2;stroke-opacity:1"
       x="0"
       y="0.026467221"
       inkscape:transform-center-x="0.038315582"
       inkscape:transform-center-y="0.054543687" />
    <path
       style="fill:#18a6d2;fill-opacity:1.19677e-07;stroke:#18a6d2;stroke-width:0.656;stroke-linecap:butt;stroke-linejoin:miter;stroke-miterlimit:4;stroke-dasharray:none;stroke-opacity:0"
       d="M 1.9319393,1.0479635 10.792813,9.5893665 9.7762341,10.499375 0.94807836,1.8769798 Z"
       id="path1474" />
    <path
       style="opacity:1;fill:#18a6d2;fill-opacity:1.19677e-07;stroke:#18a6d2;stroke-width:1px;stroke-linecap:butt;stroke-linejoin:miter;stroke-opacity:0"
       d="M 1.8998562,1.3321301 11.040801,9.7996977 10.343028,10.541286 1.1872002,2.0378334 Z"
       id="path1674" />
    <ellipse
       style="fill:#4682b4;fill-opacity:1;stroke:#4682b4;stroke-width:1.28484;stroke-opacity:1"
       id="path1207"
       cx="5.9934111"
       cy="6.0530248"
       rx="1.7906595"
       ry="1.7411687"
       inkscape:transform-center-x="-0.18057601"
       inkscape:transform-center-y="-0.040774418" />
    <path
       style="fill:#710505;fill-opacity:1;stroke:#470c0c;stroke-width:0.0142518;stroke-opacity:1"
       d="M 0,6.0213776 V 0.02850356 h 6 6 V 6.0213776 12.014252 H 6 0 Z M 6.4916864,8.3948488 C 7.8087118,8.1112264 8.6452006,6.8727074 8.3863693,5.5895502 8.1872954,4.6026406 7.3900867,3.8536167 6.3634204,3.6888725 6.1987763,3.6624529 5.7548981,3.6660752 5.5865289,3.6952126 5.202888,3.7616038 4.8218903,3.9232928 4.5178147,4.1487567 3.6982047,4.7564756 3.3560528,5.8198295 3.6708772,6.7809035 3.7954183,7.1610936 3.9900248,7.4694631 4.284458,7.7531713 c 0.1643489,0.1583621 0.2770199,0.2450054 0.4542761,0.349335 0.2362923,0.1390773 0.4922018,0.2362861 0.7624535,0.2896225 0.2197796,0.043375 0.2099179,0.042686 0.5415677,0.037865 0.2478473,-0.0036 0.3336533,-0.01032 0.4489311,-0.035145 z"
       id="path19065" />
  </g>
</svg>
